module snapshotter

go 1.20

require (
	github.com/chromedp/cdproto v0.0.0-20230524011726-8501c74e8228
	github.com/chromedp/chromedp v0.9.1
	golang.org/x/net v0.10.0
	golang.org/x/sync v0.2.0
)

require (
	github.com/chromedp/sysutil v1.0.0 // indirect
	github.com/gobwas/httphead v0.1.0 // indirect
	github.com/gobwas/pool v0.2.1 // indirect
	github.com/gobwas/ws v1.2.1 // indirect
	github.com/josharian/intern v1.0.0 // indirect
	github.com/mailru/easyjson v0.7.7 // indirect
	golang.org/x/sys v0.8.0 // indirect
)
